{
  "swagger": "2.0",
  "info": {
    "description": "",
    "version": "1.0.0",
    "title": "COIN Bundle Switching Rest API",
    "termsOfService": "",
    "contact": {
      "name": "Vereniging COIN",
      "url": "https://coin.nl/nl/contact",
      "email": "servicedesk@coin.nl"
    }
  },
  "basePath": "/",
  "tags": [
    {
      "name": "COIN Bundle Switching API"
    }
  ],
  "schemes": [],
  "paths": {
    "/bundle-switching/v4/dossiers/contractterminationrequest": {
      "post": {
        "tags": [
          "COIN Bundle Switching API"
        ],
        "summary": "Send a contract termination request",
        "description": "",
        "operationId": "postContractTerminationRequest",
        "parameters": [
          {
            "in": "body",
            "name": "body",
            "required": true,
            "schema": {
              "$ref": "#/definitions/ContractTerminationRequestEnvelope"
            }
          }
        ],
        "responses": {
          "200": {
            "description": "successful operation",
            "schema": {
              "$ref": "#/definitions/MessageResponse"
            }
          },
          "400": {
            "description": "ill-formed contract termination message",
            "schema": {
              "$ref": "#/definitions/ErrorMessages"
            }
          },
          "401": {
            "description": "Invalid Hmac",
            "schema": {
              "$ref": "#/definitions/ErrorMessages"
            }
          },
          "403": {
            "description": "Access forbidden",
            "schema": {
              "$ref": "#/definitions/ErrorMessages"
            }
          }
        }
      }
    },
    "/bundle-switching/v4/dossiers/contractterminationrequestanswer": {
      "post": {
        "tags": [
          "COIN Bundle Switching API"
        ],
        "summary": "Send a contract termination request answer",
        "description": "",
        "operationId": "postContractTerminationRequestAnswer",
        "parameters": [
          {
            "in": "body",
            "name": "body",
            "required": true,
            "schema": {
              "$ref": "#/definitions/ContractTerminationRequestAnswerEnvelope"
            }
          }
        ],
        "responses": {
          "200": {
            "description": "successful operation",
            "schema": {
              "$ref": "#/definitions/MessageResponse"
            }
          },
          "400": {
            "description": "ill-formed contract termination message",
            "schema": {
              "$ref": "#/definitions/ErrorMessages"
            }
          },
          "401": {
            "description": "Invalid Hmac",
            "schema": {
              "$ref": "#/definitions/ErrorMessages"
            }
          },
          "403": {
            "description": "Access forbidden",
            "schema": {
              "$ref": "#/definitions/ErrorMessages"
            }
          }
        }
      }
    },
    "/bundle-switching/v4/dossiers/contractterminationperformed": {
      "post": {
        "tags": [
          "COIN Bundle Switching API"
        ],
        "summary": "Send a contract termination performed",
        "description": "",
        "operationId": "postContractTerminationPerformed",
        "parameters": [
          {
            "in": "body",
            "name": "body",
            "required": true,
            "schema": {
              "$ref": "#/definitions/ContractTerminationPerformedEnvelope"
            }
          }
        ],
        "responses": {
          "200": {
            "description": "successful operation",
            "schema": {
              "$ref": "#/definitions/MessageResponse"
            }
          },
          "400": {
            "description": "ill-formed contract termination message",
            "schema": {
              "$ref": "#/definitions/ErrorMessages"
            }
          },
          "401": {
            "description": "Invalid Hmac",
            "schema": {
              "$ref": "#/definitions/ErrorMessages"
            }
          },
          "403": {
            "description": "Access forbidden",
            "schema": {
              "$ref": "#/definitions/ErrorMessages"
            }
          }
        }
      }
    },
    "/bundle-switching/v4/dossiers/cancel": {
      "post": {
        "tags": [
          "COIN Bundle Switching API"
        ],
        "summary": "Send a cancel",
        "description": "",
        "operationId": "postCancel",
        "parameters": [
          {
            "in": "body",
            "name": "body",
            "required": true,
            "schema": {
              "$ref": "#/definitions/CancelEnvelope"
            }
          }
        ],
        "responses": {
          "200": {
            "description": "successful operation",
            "schema": {
              "$ref": "#/definitions/MessageResponse"
            }
          },
          "400": {
            "description": "ill-formed contract termination message",
            "schema": {
              "$ref": "#/definitions/ErrorMessages"
            }
          },
          "401": {
            "description": "Invalid Hmac",
            "schema": {
              "$ref": "#/definitions/ErrorMessages"
            }
          },
          "403": {
            "description": "Access forbidden",
            "schema": {
              "$ref": "#/definitions/ErrorMessages"
            }
          }
        }
      }
    },
    "/bundle-switching/v4/dossiers/confirmations/{distributionId}": {
      "put": {
        "tags": [
          "COIN Bundle Switching API"
        ],
        "summary": "Confirm that a message has been received",
        "description": "",
        "operationId": "putConfirmation",
        "parameters": [
          {
            "name": "distributionId",
            "in": "path",
            "required": true,
            "type": "integer",
            "format": "int64"
          },
          {
            "in": "body",
            "name": "body",
            "required": true,
            "schema": {
              "$ref": "#/definitions/ConfirmationMessage"
            }
          }
        ],
        "responses": {
          "200": {
            "description": "successful operation",
            "schema": {
              "type": "string"
            }
          },
          "400": {
            "description": "ill-formed contract termination message",
            "schema": {
              "$ref": "#/definitions/ErrorMessages"
            }
          },
          "401": {
            "description": "Invalid Hmac",
            "schema": {
              "$ref": "#/definitions/ErrorMessages"
            }
          },
          "403": {
            "description": "Access forbidden",
            "schema": {
              "$ref": "#/definitions/ErrorMessages"
            }
          }
        }
      }
    },
    "/bundle-switching/v4/dossiers/events": {
      "get": {
        "tags": [
          "COIN Bundle Switching API"
        ],
        "summary": "Returns server-sent event stream",
        "description": "",
        "operationId": "events",
        "produces": [
          "text/event-stream"
        ],
        "parameters": [
          {
            "name": "offset",
            "in": "query",
            "required": false,
            "type": "integer",
            "default": -1,
            "format": "int64"
          },
          {
            "name": "messageTypes",
            "in": "query",
            "required": false,
            "type": "string",
            "enum": [
              "contractterminationrequest",
              "contractterminationrequestanswer",
              "cancel",
              "contractterminationperformed",
              "errorfound"
            ]
          },
          {
            "name": "confirmationStatus",
            "in": "query",
            "required": false,
            "type": "string",
            "default": "Unconfirmed",
            "enum": [
              "Unconfirmed",
              "All"
            ]
          },
          {
            "name": "serviceproviders",
            "in": "query",
            "required": false,
            "type": "string"
          }
        ],
        "responses": {
          "200": {
            "description": "successful operation",
            "schema": {
              "$ref": "#/definitions/ServerSentEvent"
            }
          },
          "404": {
            "description": "ServiceProvider not found"
          },
          "400": {
            "description": "ill-formed contract termination message",
            "schema": {
              "$ref": "#/definitions/ErrorMessages"
            }
          },
          "401": {
            "description": "Invalid Hmac",
            "schema": {
              "$ref": "#/definitions/ErrorMessages"
            }
          },
          "403": {
            "description": "Access forbidden",
            "schema": {
              "$ref": "#/definitions/ErrorMessages"
            }
          }
        }
      }
    }
  },
  "securityDefinitions": {
    "jwt": {
      "type": "apiKey",
      "name": "jwt",
      "in": "header"
    }
  },
  "definitions": {
    "ContractTerminationRequestAnswer": {
      "type": "object",
      "required": [
        "blocking",
        "business",
        "dossierid"
      ],
      "properties": {
        "dossierid": {
          "type": "string",
          "example": "VSTL-SCLT-2013100100123-1",
          "description": "The identifier for the Contract Termination Request determined by the Recipient for communication between the Recipient and Donor. Defined as [RecipientSPCode]-[DonorSPCode]-[Identifier] The requirement is that the dossierid is unique and identifies the contract termination request. ",
          "minLength": 8,
          "maxLength": 40,
          "pattern": "^[A-Z0-9]{1,6}-[A-Z0-9]{1,6}-[A-Za-z0-9]{1,22}-[0-9]{1,3}$"
        },
        "business": {
          "type": "string",
          "example": "Y",
          "description": "Indicates whether the dossier is a business request or not",
          "pattern": "^[YN]$"
        },
        "blocking": {
          "type": "string",
          "example": "N",
          "description": "Blocking indicator as a response to the contract termination request message. ",
          "pattern": "^[YN]$"
        },
        "blockingcode": {
          "type": "string",
          "example": "99",
          "description": "Blocking code as described in E2E Overstappen. If blockingcode = 0 then blocking=N else blocking=Y",
          "pattern": "[1-9]{0,1}[0-9]"
        },
        "firstpossibledate": {
          "type": "string",
          "example": "2020-10-10T12:34:56",
          "description": "The first possible date that the contract termination can take place. Format: CCYY-MM-DDTHH24:MI:SS ",
          "pattern": "^\\d{4}-\\d\\d-\\d\\dT\\d\\d:\\d\\d:\\d\\d$"
        },
        "infrablock": {
          "$ref": "#/definitions/InfraBlock"
        },
        "note": {
          "type": "string",
          "example": "123",
          "description": "Note field for additional information",
          "minLength": 1,
          "maxLength": 100
        }
      }
    },
    "ErrorMessage": {
      "type": "object",
      "required": [
        "code",
        "message"
      ],
      "properties": {
        "code": {
          "type": "integer",
          "format": "int32",
          "description": "The following error codes are used:\n1000 Field validation error\n1010 Parameter validation error\n1020 Invalid endpoint error\n1030 Unsupported media type error\n6010 Configuration not found error\n6011 Distribution not found error\n7040 Database communication error\n7050 Stream termination error\n8000 Forbidden error\n8010 Unauthorized error\n9000 Json to XML conversion error\n9999 Unexpected error"
        },
        "message": {
          "type": "string"
        }
      }
    },
    "Sender": {
      "type": "object",
      "required": [
        "serviceprovider"
      ],
      "properties": {
        "networkoperator": {
          "type": "string",
          "example": "VSTL",
          "description": "Code of the originator of the message.",
          "pattern": "^[0-9A-Z]{3,6}$"
        },
        "serviceprovider": {
          "type": "string",
          "example": "VSTL",
          "description": "Code of the originator of the message.",
          "pattern": "^[0-9A-Z]{3,6}$"
        }
      }
    },
    "ContractTerminationRequestAnswerBody": {
      "type": "object",
      "required": [
        "contractterminationrequestanswer"
      ],
      "properties": {
        "contractterminationrequestanswer": {
          "$ref": "#/definitions/ContractTerminationRequestAnswer"
        }
      }
    },
    "ErrorFoundBody": {
      "type": "object",
      "required": [
        "errorfound"
      ],
      "properties": {
        "errorfound": {
          "$ref": "#/definitions/ErrorFound"
        }
      }
    },
    "ErrorFoundRepeats": {
      "type": "object",
      "required": [
        "seq"
      ],
      "properties": {
        "seq": {
          "$ref": "#/definitions/ErrorFoundSeq"
        }
      }
    },
    "ContractTerminationPerformedBody": {
      "type": "object",
      "required": [
        "contractterminationperformed"
      ],
      "properties": {
        "contractterminationperformed": {
          "$ref": "#/definitions/ContractTerminationPerformed"
        }
      }
    },
    "ValidationBlock": {
      "type": "object",
      "required": [
        "name",
        "value"
      ],
      "properties": {
        "name": {
          "type": "string",
          "example": "contractid",
          "description": "Contract identification (contractid or iban) that is requested to be terminated",
          "minLength": 1,
          "maxLength": 40
        },
        "value": {
          "type": "string",
          "example": "123",
          "description": "Value of the contract identification (contractid or iban) that is requested to be terminated ",
          "minLength": 1,
          "maxLength": 100
        }
      }
    },
    "ServerSentEvent": {
      "type": "object",
      "required": [
        "data"
      ],
      "properties": {
        "data": {
          "type": "string",
          "description": "A string containing the data in json format. This data can be any <messageType>Envelope described in this Swagger model."
        },
        "event": {
          "type": "string",
          "description": "messageType-v4"
        },
        "id": {
          "type": "string",
          "description": "messageId"
        }
      }
    },
    "Cancel": {
      "type": "object",
      "required": [
        "dossierid",
        "note"
      ],
      "properties": {
        "dossierid": {
          "type": "string",
          "example": "VSTL-SCLT-2013100100123-1",
          "description": "The identifier for the Contract Termination Request determined by the Recipient for communication between the Recipient and Donor. Defined as [RecipientSPCode]-[DonorSPCode]-[Identifier] The requirement is that the dossierid is unique and identifies the contract termination request. ",
          "minLength": 8,
          "maxLength": 40,
          "pattern": "^[A-Z0-9]{1,6}-[A-Z0-9]{1,6}-[A-Za-z0-9]{1,22}-[0-9]{1,3}$"
        },
        "note": {
          "type": "string",
          "example": "123",
          "description": "Note field for additional information",
          "minLength": 1,
          "maxLength": 100
        }
      }
    },
    "ContractTerminationPerformedMessage": {
      "type": "object",
      "required": [
        "body",
        "header"
      ],
      "properties": {
        "header": {
          "$ref": "#/definitions/Header"
        },
        "body": {
          "$ref": "#/definitions/ContractTerminationPerformedBody"
        }
      }
    },
    "NumberSeries": {
      "type": "object",
      "required": [
        "start"
      ],
      "properties": {
        "start": {
          "type": "string",
          "example": "0182690070",
          "description": "Nationally significant telephone number of the contract which identifies the start of series.",
          "pattern": "^(091\\d{7})|(0[8-9]\\d{9,10})|(0[1-8]\\d{8})|(0[1-9]\\d{6})$"
        },
        "end": {
          "type": "string",
          "example": "0182690079",
          "description": "Nationally significant telephone number of the contract which identifies the end of series.",
          "pattern": "^(091\\d{7})|(0[8-9]\\d{9,10})|(0[1-8]\\d{8})|(0[1-9]\\d{6})$"
        }
      }
    },
    "ContractTerminationRequestBody": {
      "type": "object",
      "required": [
        "contractterminationrequest"
      ],
      "properties": {
        "contractterminationrequest": {
          "$ref": "#/definitions/ContractTerminationRequest"
        }
      }
    },
    "ConfirmationMessage": {
      "type": "object",
      "required": [
        "transactionId"
      ],
      "properties": {
        "transactionId": {
          "type": "string",
          "example": "345nk2ls-54nj"
        }
      }
    },
    "CancelEnvelope": {
      "type": "object",
      "required": [
        "message"
      ],
      "properties": {
        "message": {
          "$ref": "#/definitions/CancelMessage"
        }
      }
    },
    "ErrorFoundEnvelope": {
      "type": "object",
      "required": [
        "message"
      ],
      "properties": {
        "message": {
          "$ref": "#/definitions/ErrorFoundMessage"
        }
      }
    },
    "ErrorFoundSeq": {
      "type": "object",
      "required": [
        "description",
        "errorcode"
      ],
      "properties": {
        "phonenumber": {
          "type": "string",
          "description": "[reserved for future use]",
          "minLength": 0,
          "maxLength": 20
        },
        "errorcode": {
          "type": "string",
          "description": "Id for the error situation ",
          "minLength": 1,
          "maxLength": 20
        },
        "description": {
          "type": "string",
          "description": "Description of the errorcode ",
          "minLength": 1,
          "maxLength": 1000
        }
      }
    },
    "Header": {
      "type": "object",
      "required": [
        "receiver",
        "sender",
        "timestamp"
      ],
      "properties": {
        "receiver": {
          "$ref": "#/definitions/Receiver"
        },
        "sender": {
          "$ref": "#/definitions/Sender"
        },
        "messageid": {
          "type": "string",
          "example": "A12b3cDEF321",
          "description": "Unique technical identifier that is determined by the initiator of the message.",
          "minLength": 1,
          "maxLength": 26
        },
        "timestamp": {
          "type": "string",
          "example": "2020-10-10T12:34:56",
          "description": "Datetimestamp of the moment the message has been created. Format: CCYY-MM-DDTHH24:MI:SS ",
          "pattern": "^\\d{4}-\\d\\d-\\d\\dT\\d\\d:\\d\\d:\\d\\d$"
        }
      }
    },
    "ContractTerminationRequest": {
      "type": "object",
      "required": [
        "addressblock",
        "business",
        "donorserviceprovider",
        "dossierid",
        "earlytermination",
        "name",
        "recipientserviceprovider"
      ],
      "properties": {
        "dossierid": {
          "type": "string",
          "example": "VSTL-SCLT-2013100100123-1",
          "description": "The identifier for the Contract Termination Request determined by the Recipient for communication between the Recipient and Donor. Defined as [RecipientSPCode]-[DonorSPCode]-[Identifier] The requirement is that the dossierid is unique and identifies the contract termination request. ",
          "minLength": 8,
          "maxLength": 40,
          "pattern": "^[A-Z0-9]{1,6}-[A-Z0-9]{1,6}-[A-Za-z0-9]{1,22}-[0-9]{1,3}$"
        },
        "recipientserviceprovider": {
          "type": "string",
          "example": "VSTL",
          "description": "Code of the Recipient party",
          "pattern": "^[0-9A-Z]{3,6}$"
        },
        "recipientnetworkoperator": {
          "type": "string",
          "example": "VSTL",
          "description": "Code of the Recipient party",
          "pattern": "^[0-9A-Z]{3,6}$"
        },
        "donornetworkoperator": {
          "type": "string",
          "example": "SCLT",
          "description": "Code of the Donor party",
          "pattern": "^[0-9A-Z]{3,6}$"
        },
        "donorserviceprovider": {
          "type": "string",
          "example": "SCLT",
          "description": "Code of the Donor party ",
          "pattern": "^[0-9A-Z]{3,6}$"
        },
        "business": {
          "type": "string",
          "example": "Y",
          "description": "Indicates whether the dossier is a business request or not",
          "pattern": "^[YN]$"
        },
        "earlytermination": {
          "type": "string",
          "example": "N",
          "description": "Indicates whether there is an authorisation for early termination of contract",
          "pattern": "^[YN]$"
        },
        "name": {
          "type": "string",
          "example": "COIN",
          "description": "Contract name that is requested to be terminated",
          "minLength": 1,
          "maxLength": 100
        },
        "addressblock": {
          "$ref": "#/definitions/AddressBlock"
        },
        "numberseries": {
          "type": "array",
          "items": {
            "$ref": "#/definitions/NumberSeries"
          }
        },
        "validationblock": {
          "type": "array",
          "items": {
            "$ref": "#/definitions/ValidationBlock"
          }
        },
        "note": {
          "type": "string",
          "example": "123",
          "description": "Note field for additional information",
          "minLength": 1,
          "maxLength": 100
        }
      }
    },
    "CancelMessage": {
      "type": "object",
      "required": [
        "body",
        "header"
      ],
      "properties": {
        "header": {
          "$ref": "#/definitions/Header"
        },
        "body": {
          "$ref": "#/definitions/CancelBody"
        }
      }
    },
    "ContractTerminationRequestMessage": {
      "type": "object",
      "required": [
        "body",
        "header"
      ],
      "properties": {
        "header": {
          "$ref": "#/definitions/Header"
        },
        "body": {
          "$ref": "#/definitions/ContractTerminationRequestBody"
        }
      }
    },
    "InfraBlock": {
      "type": "object",
      "properties": {
        "infraprovider": {
          "type": "string",
          "example": "Test",
          "description": "Provider of the infra of the line",
          "minLength": 1,
          "maxLength": 6
        },
        "infratype": {
          "type": "string",
          "example": "glas",
          "description": "Type of infra of the line ",
          "minLength": 1,
          "maxLength": 200
        },
        "infraid": {
          "type": "string",
          "example": "123",
          "description": "Id of the infra of the line ",
          "minLength": 1,
          "maxLength": 100
        }
      }
    },
    "ContractTerminationPerformed": {
      "type": "object",
      "required": [
        "dossierid"
      ],
      "properties": {
        "dossierid": {
          "type": "string",
          "example": "VSTL-SCLT-2013100100123-1",
          "description": "The identifier for the Contract Termination Request determined by the Recipient for communication between the Recipient and Donor. Defined as [RecipientSPCode]-[DonorSPCode]-[Identifier] The requirement is that the dossierid is unique and identifies the contract termination request. ",
          "minLength": 8,
          "maxLength": 40,
          "pattern": "^[A-Z0-9]{1,6}-[A-Z0-9]{1,6}-[A-Za-z0-9]{1,22}-[0-9]{1,3}$"
        },
        "actualdatetime": {
          "type": "string",
          "example": "2020-10-10T12:34:56",
          "description": "The date and time on which the termination of the contract has  been performed. COMP will register the datetime of reception of the Contract Termination Performed message as the actualdatetime and populate this field in the message when sending to the Donor. Format: CCYY-MM-DDTHH24:MI:SS ",
          "pattern": "^\\d{4}-\\d\\d-\\d\\dT\\d\\d:\\d\\d:\\d\\d$"
        },
        "note": {
          "type": "string",
          "example": "123",
          "description": "Note field for additional information",
          "minLength": 1,
          "maxLength": 100
        }
      }
    },
    "ErrorFoundMessage": {
      "type": "object",
      "required": [
        "body",
        "header"
      ],
      "properties": {
        "header": {
          "$ref": "#/definitions/Header"
        },
        "body": {
          "$ref": "#/definitions/ErrorFoundBody"
        }
      }
    },
    "ContractTerminationPerformedEnvelope": {
      "type": "object",
      "required": [
        "message"
      ],
      "properties": {
        "message": {
          "$ref": "#/definitions/ContractTerminationPerformedMessage"
        }
      }
    },
    "CancelBody": {
      "type": "object",
      "required": [
        "cancel"
      ],
      "properties": {
        "cancel": {
          "$ref": "#/definitions/Cancel"
        }
      }
    },
    "ContractTerminationRequestAnswerMessage": {
      "type": "object",
      "required": [
        "body",
        "header"
      ],
      "properties": {
        "header": {
          "$ref": "#/definitions/Header"
        },
        "body": {
          "$ref": "#/definitions/ContractTerminationRequestAnswerBody"
        }
      }
    },
    "ErrorFound": {
      "type": "object",
      "required": [
        "repeats"
      ],
      "properties": {
        "dossierid": {
          "type": "string",
          "example": "VSTL-SCLT-2013100100123-1",
          "description": "The identifier for the Contract Termination Request determined by the Recipient for communication between the Recipient and Donor. Defined as [RecipientSPCode]-[DonorSPCode]-[Identifier] The requirement is that the dossierid is unique and identifies the contract termination request. ",
          "minLength": 8,
          "maxLength": 40,
          "pattern": "^[A-Z0-9]{1,6}-[A-Z0-9]{1,6}-[A-Za-z0-9]{1,22}-[0-9]{1,3}$"
        },
        "messagetype": {
          "type": "string",
          "example": "change",
          "description": "The message type of the message in which one or more errors have been found.",
          "pattern": "contractterminationrequest|contractterminationrequestanswer|contractterminationperformed|cancel"
        },
        "messageid": {
          "type": "string",
          "example": "123",
          "description": "The unique technical id of the message in which one or more errors have been found",
          "minLength": 0,
          "maxLength": 26
        },
        "originalmessage": {
          "type": "string",
          "example": "change",
          "description": "The processed message in which one or more errors have been found."
        },
        "errorlog": {
          "type": "string",
          "example": "123",
          "description": "A log of errors that has been found when processing the message."
        },
        "repeats": {
          "type": "array",
          "items": {
            "$ref": "#/definitions/ErrorFoundRepeats"
          },
          "maxItems": 2147483647,
          "minItems": 1
        }
      }
    },
    "ErrorMessages": {
      "type": "object",
      "required": [
        "errors",
        "transactionId"
      ],
      "properties": {
        "errors": {
          "type": "array",
          "items": {
            "$ref": "#/definitions/ErrorMessage"
          }
        },
        "transactionId": {
          "type": "string"
        }
      }
    },
    "Receiver": {
      "type": "object",
      "required": [
        "serviceprovider"
      ],
      "properties": {
        "networkoperator": {
          "type": "string",
          "example": "SCLT",
          "description": "Code of the destination of the message.",
          "pattern": "^[0-9A-Z]{3,6}$"
        },
        "serviceprovider": {
          "type": "string",
          "example": "SCLT",
          "description": "Code of the destination of the message.",
          "pattern": "^[0-9A-Z]{3,6}$"
        }
      }
    },
    "ContractTerminationRequestAnswerEnvelope": {
      "type": "object",
      "required": [
        "message"
      ],
      "properties": {
        "message": {
          "$ref": "#/definitions/ContractTerminationRequestAnswerMessage"
        }
      }
    },
    "AddressBlock": {
      "type": "object",
      "required": [
        "housenr",
        "postcode"
      ],
      "properties": {
        "postcode": {
          "type": "string",
          "example": "2803PK",
          "description": "Contract Postcode, that is requested to be terminated",
          "pattern": "^[1-9]\\d{3}[A-Z]{2}$"
        },
        "housenr": {
          "type": "string",
          "example": "21",
          "description": "Contract House number that is requested to be terminated",
          "pattern": "^\\d{1,5}$"
        },
        "housenr_ext": {
          "type": "string",
          "example": "A",
          "description": "Contract House number that is requested to be terminated",
          "minLength": 1,
          "maxLength": 6
        }
      }
    },
    "MessageResponse": {
      "type": "object",
      "required": [
        "transactionId"
      ],
      "properties": {
        "transactionId": {
          "type": "string",
          "example": "345nk2ls-54nj"
        }
      }
    },
    "ContractTerminationRequestEnvelope": {
      "type": "object",
      "required": [
        "message"
      ],
      "properties": {
        "message": {
          "$ref": "#/definitions/ContractTerminationRequestMessage"
        }
      }
    }
  },
  "externalDocs": {
    "description": "Click here for SDKs in several programming languages",
    "url": "https://gitlab.com/verenigingcoin-public"
  },
  "host": "api.coin.nl"
}
